%!PS-Adobe-2.0 EPSF-1.2
%%Creator: MATLAB, The Mathworks, Inc. Version 7.6.0.324 (R2008a). Operating System: Darwin 10.8.0 Darwin Kernel Version 10.8.0: Tue Jun  7 16:33:36 PDT 2011; root:xnu-1504.15.3~1/RELEASE_I386 i386.
%%Title: ./cleps.eps
%%CreationDate: 03/24/2014  23:30:25
%%DocumentNeededFonts: Helvetica
%%DocumentProcessColors: Cyan Magenta Yellow Black
%%Pages: 1
%%BoundingBox:    76   269   543   529
%%EndComments

%%BeginProlog
% MathWorks dictionary
/MathWorks 160 dict begin
% definition operators
/bdef {bind def} bind def
/ldef {load def} bind def
/xdef {exch def} bdef
/xstore {exch store} bdef
% operator abbreviations
/c  /clip ldef
/cc /concat ldef
/cp /closepath ldef
/gr /grestore ldef
/gs /gsave ldef
/mt /moveto ldef
/np /newpath ldef
/cm /currentmatrix ldef
/sm /setmatrix ldef
/rm /rmoveto ldef
/rl /rlineto ldef
/s {show newpath} bdef
/sc {setcmykcolor} bdef
/sr /setrgbcolor ldef
/sg /setgray ldef
/w /setlinewidth ldef
/j /setlinejoin ldef
/cap /setlinecap ldef
/rc {rectclip} bdef
/rf {rectfill} bdef
% page state control
/pgsv () def
/bpage {/pgsv save def} bdef
/epage {pgsv restore} bdef
/bplot /gsave ldef
/eplot {stroke grestore} bdef
% orientation switch
/portraitMode 0 def /landscapeMode 1 def /rotateMode 2 def
% coordinate system mappings
/dpi2point 0 def
% font control
/FontSize 0 def
/FMS {/FontSize xstore findfont [FontSize 0 0 FontSize neg 0 0]
  makefont setfont} bdef
/reencode {exch dup where {pop load} {pop StandardEncoding} ifelse
  exch dup 3 1 roll findfont dup length dict begin
  { 1 index /FID ne {def}{pop pop} ifelse } forall
  /Encoding exch def currentdict end definefont pop} bdef
/isroman {findfont /CharStrings get /Agrave known} bdef
/FMSR {3 1 roll 1 index dup isroman {reencode} {pop pop} ifelse
  exch FMS} bdef
/csm {1 dpi2point div -1 dpi2point div scale neg translate
 dup landscapeMode eq {pop -90 rotate}
  {rotateMode eq {90 rotate} if} ifelse} bdef
% line types: solid, dotted, dashed, dotdash
/SO { [] 0 setdash } bdef
/DO { [.5 dpi2point mul 4 dpi2point mul] 0 setdash } bdef
/DA { [6 dpi2point mul] 0 setdash } bdef
/DD { [.5 dpi2point mul 4 dpi2point mul 6 dpi2point mul 4
  dpi2point mul] 0 setdash } bdef
% macros for lines and objects
/L {lineto stroke} bdef
/MP {3 1 roll moveto 1 sub {rlineto} repeat} bdef
/AP {{rlineto} repeat} bdef
/PDlw -1 def
/W {/PDlw currentlinewidth def setlinewidth} def
/PP {closepath eofill} bdef
/DP {closepath stroke} bdef
/MR {4 -2 roll moveto dup  0 exch rlineto exch 0 rlineto
  neg 0 exch rlineto closepath} bdef
/FR {MR stroke} bdef
/PR {MR fill} bdef
/L1i {{currentfile picstr readhexstring pop} image} bdef
/tMatrix matrix def
/MakeOval {newpath tMatrix currentmatrix pop translate scale
0 0 1 0 360 arc tMatrix setmatrix} bdef
/FO {MakeOval stroke} bdef
/PO {MakeOval fill} bdef
/PD {currentlinewidth 2 div 0 360 arc fill
   PDlw -1 eq not {PDlw w /PDlw -1 def} if} def
/FA {newpath tMatrix currentmatrix pop translate scale
  0 0 1 5 -2 roll arc tMatrix setmatrix stroke} bdef
/PA {newpath tMatrix currentmatrix pop	translate 0 0 moveto scale
  0 0 1 5 -2 roll arc closepath tMatrix setmatrix fill} bdef
/FAn {newpath tMatrix currentmatrix pop translate scale
  0 0 1 5 -2 roll arcn tMatrix setmatrix stroke} bdef
/PAn {newpath tMatrix currentmatrix pop translate 0 0 moveto scale
  0 0 1 5 -2 roll arcn closepath tMatrix setmatrix fill} bdef
/vradius 0 def /hradius 0 def /lry 0 def
/lrx 0 def /uly 0 def /ulx 0 def /rad 0 def
/MRR {/vradius xdef /hradius xdef /lry xdef /lrx xdef /uly xdef
  /ulx xdef newpath tMatrix currentmatrix pop ulx hradius add uly
  vradius add translate hradius vradius scale 0 0 1 180 270 arc 
  tMatrix setmatrix lrx hradius sub uly vradius add translate
  hradius vradius scale 0 0 1 270 360 arc tMatrix setmatrix
  lrx hradius sub lry vradius sub translate hradius vradius scale
  0 0 1 0 90 arc tMatrix setmatrix ulx hradius add lry vradius sub
  translate hradius vradius scale 0 0 1 90 180 arc tMatrix setmatrix
  closepath} bdef
/FRR {MRR stroke } bdef
/PRR {MRR fill } bdef
/MlrRR {/lry xdef /lrx xdef /uly xdef /ulx xdef /rad lry uly sub 2 div def
  newpath tMatrix currentmatrix pop ulx rad add uly rad add translate
  rad rad scale 0 0 1 90 270 arc tMatrix setmatrix lrx rad sub lry rad
  sub translate rad rad scale 0 0 1 270 90 arc tMatrix setmatrix
  closepath} bdef
/FlrRR {MlrRR stroke } bdef
/PlrRR {MlrRR fill } bdef
/MtbRR {/lry xdef /lrx xdef /uly xdef /ulx xdef /rad lrx ulx sub 2 div def
  newpath tMatrix currentmatrix pop ulx rad add uly rad add translate
  rad rad scale 0 0 1 180 360 arc tMatrix setmatrix lrx rad sub lry rad
  sub translate rad rad scale 0 0 1 0 180 arc tMatrix setmatrix
  closepath} bdef
/FtbRR {MtbRR stroke } bdef
/PtbRR {MtbRR fill } bdef
/stri 6 array def /dtri 6 array def
/smat 6 array def /dmat 6 array def
/tmat1 6 array def /tmat2 6 array def /dif 3 array def
/asub {/ind2 exch def /ind1 exch def dup dup
  ind1 get exch ind2 get sub exch } bdef
/tri_to_matrix {
  2 0 asub 3 1 asub 4 0 asub 5 1 asub
  dup 0 get exch 1 get 7 -1 roll astore } bdef
/compute_transform {
  dmat dtri tri_to_matrix tmat1 invertmatrix 
  smat stri tri_to_matrix tmat2 concatmatrix } bdef
/ds {stri astore pop} bdef
/dt {dtri astore pop} bdef
/db {2 copy /cols xdef /rows xdef mul dup string
  currentfile exch readhexstring pop
  /bmap xdef pop pop} bdef
/it {gs np dtri aload pop moveto lineto lineto cp c
  cols rows 8 compute_transform 
  {bmap} image gr}bdef
/il {newpath moveto lineto stroke}bdef
currentdict end def
%%EndProlog

%%BeginSetup
MathWorks begin

0 cap

end
%%EndSetup

%%Page: 1 1
%%BeginPageSetup
%%PageBoundingBox:    76   269   543   529
MathWorks begin
bpage
%%EndPageSetup

%%BeginObject: obj1
bplot

/dpi2point 12 def
portraitMode 0216 7344 csm

  698   993  5607  3116 MR c np
85 dict begin %Colortable dictionary
/c0 { 0.000000 0.000000 0.000000 sr} bdef
/c1 { 1.000000 1.000000 1.000000 sr} bdef
/c2 { 0.900000 0.000000 0.000000 sr} bdef
/c3 { 0.000000 0.820000 0.000000 sr} bdef
/c4 { 0.000000 0.000000 0.800000 sr} bdef
/c5 { 0.910000 0.820000 0.320000 sr} bdef
/c6 { 1.000000 0.260000 0.820000 sr} bdef
/c7 { 0.000000 0.820000 0.820000 sr} bdef
c0
1 j
1 sg
   0    0 6913 5186 PR
6 w
0 2921 5356 0 0 -2921 899 3962 4 MP
PP
-5356 0 0 2921 5356 0 0 -2921 899 3962 5 MP stroke
4 w
DO
SO
6 w
0 sg
 899 3962 mt 6255 3962 L
 899 1041 mt 6255 1041 L
 899 3962 mt  899 1041 L
6255 3962 mt 6255 1041 L
 899 3962 mt 6255 3962 L
 899 3962 mt  899 1041 L
1142 3962 mt 1142 3909 L
1142 1041 mt 1142 1094 L
%%IncludeResource: font Helvetica
/Helvetica /ISOLatin1Encoding 120 FMSR

1039 4108 mt 
(-1) s
1629 3962 mt 1629 3909 L
1629 1041 mt 1629 1094 L
1476 4108 mt 
(-0.8) s
2116 3962 mt 2116 3909 L
2116 1041 mt 2116 1094 L
1963 4108 mt 
(-0.6) s
2603 3962 mt 2603 3909 L
2603 1041 mt 2603 1094 L
2450 4108 mt 
(-0.4) s
3090 3962 mt 3090 3909 L
3090 1041 mt 3090 1094 L
2937 4108 mt 
(-0.2) s
3577 3962 mt 3577 3909 L
3577 1041 mt 3577 1094 L
3544 4108 mt 
(0) s
4063 3962 mt 4063 3909 L
4063 1041 mt 4063 1094 L
3980 4108 mt 
(0.2) s
4550 3962 mt 4550 3909 L
4550 1041 mt 4550 1094 L
4467 4108 mt 
(0.4) s
5037 3962 mt 5037 3909 L
5037 1041 mt 5037 1094 L
4954 4108 mt 
(0.6) s
5524 3962 mt 5524 3909 L
5524 1041 mt 5524 1094 L
5441 4108 mt 
(0.8) s
6011 3962 mt 6011 3909 L
6011 1041 mt 6011 1094 L
5978 4108 mt 
(1) s
 899 3719 mt  952 3719 L
6255 3719 mt 6201 3719 L
 798 3763 mt 
(0) s
 899 3232 mt  952 3232 L
6255 3232 mt 6201 3232 L
 698 3276 mt 
(0.2) s
 899 2745 mt  952 2745 L
6255 2745 mt 6201 2745 L
 698 2789 mt 
(0.4) s
 899 2258 mt  952 2258 L
6255 2258 mt 6201 2258 L
 698 2302 mt 
(0.6) s
 899 1771 mt  952 1771 L
6255 1771 mt 6201 1771 L
 698 1815 mt 
(0.8) s
 899 1284 mt  952 1284 L
6255 1284 mt 6201 1284 L
 798 1328 mt 
(1) s
 899 3962 mt 6255 3962 L
 899 1041 mt 6255 1041 L
 899 3962 mt  899 1041 L
6255 3962 mt 6255 1041 L
gs 899 1041 5357 2922 MR c np
24 w
49 -191 49 -179 50 -169 49 -158 49 -148 49 -138 49 -129 49 -120 
50 -112 49 -104 49 -96 49 -89 49 -82 50 -76 49 -69 49 -64 
49 -58 49 -54 49 -48 50 -44 49 -39 49 -36 49 -32 49 -28 
50 -26 49 -22 49 -20 49 -17 49 -15 49 -13 50 -11 49 -10 
49 -8 49 -6 49 -6 50 -4 49 -4 49 -3 49 -2 49 -1 
49 -2 50 0 49 -1 49 0 49 -1 49 0 50 0 49 0 
49 0 49 0 49 0 49 0 50 0 49 0 49 1 49 0 
49 1 50 0 49 2 49 1 49 2 49 3 49 4 50 4 
49 6 49 6 49 8 49 10 50 11 49 13 49 15 49 17 
49 20 49 22 50 26 49 28 49 32 49 36 49 39 50 44 
49 48 49 54 49 58 49 64 49 69 50 76 49 82 49 89 
49 96 49 104 50 112 49 120 49 129 49 138 49 148 49 158 
50 169 49 179 49 191 1142 1284 100 MP stroke
6 w
4869 0 1142 1284 2 MP stroke
DO
0 -2921 3577 3962 2 MP stroke
SO
gr


end %%Color Dict

eplot
%%EndObject

epage
end

showpage

%%Trailer
%%EOF
