%!PS-Adobe-3.0 EPSF-3.0
%%Creator: cairo 1.12.16 (http://cairographics.org)
%%CreationDate: Mon Mar 30 17:59:27 2015
%%Pages: 1
%%DocumentData: Clean7Bit
%%LanguageLevel: 2
%%BoundingBox: 0 -1 700 106
%%EndComments
%%BeginProlog
save
50 dict begin
/q { gsave } bind def
/Q { grestore } bind def
/cm { 6 array astore concat } bind def
/w { setlinewidth } bind def
/J { setlinecap } bind def
/j { setlinejoin } bind def
/M { setmiterlimit } bind def
/d { setdash } bind def
/m { moveto } bind def
/l { lineto } bind def
/c { curveto } bind def
/h { closepath } bind def
/re { exch dup neg 3 1 roll 5 3 roll moveto 0 rlineto
      0 exch rlineto 0 rlineto closepath } bind def
/S { stroke } bind def
/f { fill } bind def
/f* { eofill } bind def
/n { newpath } bind def
/W { clip } bind def
/W* { eoclip } bind def
/BT { } bind def
/ET { } bind def
/pdfmark where { pop globaldict /?pdfmark /exec load put }
    { globaldict begin /?pdfmark /pop load def /pdfmark
    /cleartomark load def end } ifelse
/BDC { mark 3 1 roll /BDC pdfmark } bind def
/EMC { mark /EMC pdfmark } bind def
/cairo_store_point { /cairo_point_y exch def /cairo_point_x exch def } def
/Tj { show currentpoint cairo_store_point } bind def
/TJ {
  {
    dup
    type /stringtype eq
    { show } { -0.001 mul 0 cairo_font_matrix dtransform rmoveto } ifelse
  } forall
  currentpoint cairo_store_point
} bind def
/cairo_selectfont { cairo_font_matrix aload pop pop pop 0 0 6 array astore
    cairo_font exch selectfont cairo_point_x cairo_point_y moveto } bind def
/Tf { pop /cairo_font exch def /cairo_font_matrix where
      { pop cairo_selectfont } if } bind def
/Td { matrix translate cairo_font_matrix matrix concatmatrix dup
      /cairo_font_matrix exch def dup 4 get exch 5 get cairo_store_point
      /cairo_font where { pop cairo_selectfont } if } bind def
/Tm { 2 copy 8 2 roll 6 array astore /cairo_font_matrix exch def
      cairo_store_point /cairo_font where { pop cairo_selectfont } if } bind def
/g { setgray } bind def
/rg { setrgbcolor } bind def
/d1 { setcachedevice } bind def
%%EndProlog
%%Page: 1 1
%%BeginPageSetup
%%PageBoundingBox: 0 -1 700 106
%%EndPageSetup
q 0 -1 700 107 rectclip q
0 g
0.860018 w
1 J
0 j
[ 1.720037 1.720037] 0 d
4 M q -1 0 0 -0.977743 0 261.975891 cm
-303.047 241.992 m -301.504 241.96 -300.238 244.433 -300.219 247.521 c 
-300.203 250.609 -301.441 253.142 -302.984 253.178 c -303.047 253.178 -303.105
 253.174 -303.168 253.17 c S Q
0 J
[] 0.0 d
q 1 0 0 -0.977743 0 261.975891 cm
302.863 241.992 m 304.406 241.96 305.672 244.433 305.691 247.521 c 305.707
 250.609 304.469 253.142 302.926 253.178 c 302.863 253.178 302.801 253.174
 302.742 253.17 c S Q
1.250033 w
1 J
1 j
q 1 0 0 -0.461419 0 261.975891 cm
20.035 512.871 m 302.648 512.871 l S Q
0.862857 w
0 J
0 j
q 0.97132 0 0 -1 0 261.975891 cm
22.963 242.051 m 22.963 245.094 21.729 247.562 20.208 247.562 c 18.684 
247.562 17.45 245.094 17.45 242.051 c 17.45 239.008 18.684 236.539 20.208
 236.539 c 21.729 236.539 22.963 239.008 22.963 242.051 c h
S Q
1.251282 w
1 J
1 j
q 1 0 0 -0.461419 0 261.975891 cm
19.469 536.533 m 302.648 536.533 l S Q
0.84912 w
q 1 0 0 -1 0 261.975891 cm
416.832 236.648 m 547.449 236.648 l 558.051 236.082 560.516 234.43 569.391
 229.309 c 677.812 166.707 l S Q
0.862857 w
0 J
0 j
q 0.97132 0 0 -1 0 261.975891 cm
431.48 242.051 m 431.48 245.094 430.246 247.562 428.722 247.562 c 427.201
 247.562 425.967 245.094 425.967 242.051 c 425.967 239.008 427.201 236.539
 428.722 236.539 c 430.246 236.539 431.48 239.008 431.48 242.051 c h
S Q
0.849968 w
1 J
1 j
q 1 0 0 -1 0 261.975891 cm
416.27 247.566 m 547.582 247.566 l 560.027 247.422 566.875 244.152 575.059
 238.641 c 683.27 176.164 l S Q
0.744798 w
0 j
[ 1.489595 1.489595] 0 d
q -1 -0.57735 0.5645 -0.977743 0 261.975891 cm
-436.518 428.023 m -435.18 427.992 -434.085 430.138 -434.068 432.813 c 
-434.055 435.486 -435.125 437.68 -436.465 437.708 c -436.518 437.711 -436.571
 437.707 -436.624 437.702 c S Q
0 J
[] 0.0 d
q 1 0.57735 0.5645 -0.977743 0 261.975891 cm
436.357 428.024 m 437.696 427.991 438.793 430.137 438.807 432.811 c 438.82
 435.487 437.75 437.68 436.413 437.709 c 436.359 437.709 436.306 437.706
 436.253 437.703 c S Q
0.566929 w
1 J
[ 1.133858 1.133858] 0.510236 d
q 1 0 0 -1 0 261.975891 cm
2.461 241.75 m 699.781 241.75 l S Q
0.84912 w
1 j
[] 0.0 d
q 1 0 0 -1 0 261.975891 cm
416.832 236.648 m 547.449 236.648 l 558.051 236.082 560.516 234.43 569.391
 229.309 c 677.812 166.707 l S Q
q 1 0 0 -1 0 261.975891 cm
416.832 236.648 m 547.449 236.648 l 558.051 236.082 560.516 234.43 569.391
 229.309 c 677.812 166.707 l S Q
q 1 0 0 -1 0 261.975891 cm
416.832 236.648 m 547.449 236.648 l 558.051 236.082 560.516 234.43 569.391
 229.309 c 677.812 166.707 l S Q
0.850394 w
0 J
0 j
q 1 0 0 -1 0 261.975891 cm
98.84 261.98 m 98.84 249.238 l S Q
96.781 8.288 m 98.828 13.867 l 100.879 8.288 l 99.668 9.179 98.012 9.175
 96.781 8.288 c h
f*
q 1 0 0 -1 0 261.975891 cm
302.297 224.742 m 21.078 224.742 l S Q
297.848 39.292 m 303.422 37.242 l 297.848 35.191 l 298.738 36.402 298.73
 38.058 297.848 39.292 c h
f*
25.523 35.175 m 19.949 37.226 l 25.523 39.273 l 24.633 38.066 24.641 36.409
 25.523 35.175 c h
f*
q 1 0 0 -1 0 261.975891 cm
673.035 156.711 m 622.012 185.059 563.824 219.383 552.562 223.043 c 541.043
 226.785 460.625 224.742 417.918 224.742 c S Q
668.148 104.902 m 674.016 105.82 l 670.141 101.32 l 670.328 102.808 669.52
 104.253 668.148 104.902 c h
f*
422.367 35.175 m 416.793 37.226 l 422.367 39.273 l 421.477 38.066 421.48
 36.409 422.367 35.175 c h
f*
q 1 0 0 -1 0 261.975891 cm
660.098 241.75 m 661.844 213.305 655.461 206.258 649.793 197.43 c S Q
650.461 59.691 m 649.176 65.492 l 653.914 61.906 l 652.414 62.003 651.023
 61.105 650.461 59.691 c h
f*
q 1 0 0 -1 0 261.975891 cm
324.832 185.027 m 324.832 241.723 l 381.527 241.723 l S Q
322.773 72.499 m 324.824 78.074 l 326.875 72.499 l 325.664 73.39 324.008
 73.382 322.773 72.499 c h
f*
377.078 22.312 m 382.652 20.261 l 377.078 18.214 l 377.969 19.421 377.965
 21.077 377.078 22.312 c h
f*
q 1 0 0 -1 0 261.975891 cm
98.84 227.055 m 98.84 235.117 l S Q
100.895 31.308 m 98.848 25.734 l 96.797 31.308 l 98.008 30.417 99.664 30.421
 100.895 31.308 c h
f*
1.417323 w
q 1 0 0 -1 0 261.975891 cm
-0.008 241.75 m 15.555 241.75 l S Q
18.824 20.226 m 13.922 17.39 l 13.922 23.058 l h
f*
0.708661 w
q 1 0 0 -1 0 261.975891 cm
18.824 241.75 m 13.922 244.586 l 13.922 238.918 l h
S Q
1.417323 w
q 1 0 0 -1 0 261.975891 cm
396.789 241.75 m 412.355 241.75 l S Q
415.625 20.226 m 410.723 17.39 l 410.723 23.058 l h
f*
0.708661 w
q 1 0 0 -1 0 261.975891 cm
415.625 241.75 m 410.723 244.586 l 410.723 238.918 l h
S Q
Q Q
showpage
%%Trailer
end restore
%%EOF
