%!PS-Adobe-3.0 EPSF-3.0
%%Creator: cairo 1.8.8 (http://cairographics.org)
%%CreationDate: Mon Mar 24 21:42:22 2014
%%Pages: 1
%%BoundingBox: 0 0 296 193
%%DocumentData: Clean7Bit
%%LanguageLevel: 2
%%EndComments
%%BeginProlog
/cairo_eps_state save def
/dict_count countdictstack def
/op_count count 1 sub def
userdict begin
/q { gsave } bind def
/Q { grestore } bind def
/cm { 6 array astore concat } bind def
/w { setlinewidth } bind def
/J { setlinecap } bind def
/j { setlinejoin } bind def
/M { setmiterlimit } bind def
/d { setdash } bind def
/m { moveto } bind def
/l { lineto } bind def
/c { curveto } bind def
/h { closepath } bind def
/re { exch dup neg 3 1 roll 5 3 roll moveto 0 rlineto
      0 exch rlineto 0 rlineto closepath } bind def
/S { stroke } bind def
/f { fill } bind def
/f* { eofill } bind def
/B { fill stroke } bind def
/B* { eofill stroke } bind def
/n { newpath } bind def
/W { clip } bind def
/W* { eoclip } bind def
/BT { } bind def
/ET { } bind def
/pdfmark where { pop globaldict /?pdfmark /exec load put }
    { globaldict begin /?pdfmark /pop load def /pdfmark
    /cleartomark load def end } ifelse
/BDC { mark 3 1 roll /BDC pdfmark } bind def
/EMC { mark /EMC pdfmark } bind def
/cairo_store_point { /cairo_point_y exch def /cairo_point_x exch def } def
/Tj { show currentpoint cairo_store_point } bind def
/TJ {
  {
    dup
    type /stringtype eq
    { show } { -0.001 mul 0 cairo_font_matrix dtransform rmoveto } ifelse
  } forall
  currentpoint cairo_store_point
} bind def
/cairo_selectfont { cairo_font_matrix aload pop pop pop 0 0 6 array astore
    cairo_font exch selectfont cairo_point_x cairo_point_y moveto } bind def
/Tf { pop /cairo_font exch def /cairo_font_matrix where
      { pop cairo_selectfont } if } bind def
/Td { matrix translate cairo_font_matrix matrix concatmatrix dup
      /cairo_font_matrix exch def dup 4 get exch 5 get cairo_store_point
      /cairo_font where { pop cairo_selectfont } if } bind def
/Tm { 2 copy 8 2 roll 6 array astore /cairo_font_matrix exch def
      cairo_store_point /cairo_font where { pop cairo_selectfont } if } bind def
/g { setgray } bind def
/rg { setrgbcolor } bind def
/d1 { setcachedevice } bind def
%%EndProlog
%%Page: 1 1
%%BeginPageSetup
%%PageBoundingBox: 0 0 296 193
%%EndPageSetup
q
0 g
0.8 w
1 J
0 j
[ 1.6 1.6] 0 d
4 M q 1 0 0 -1 0 192.800003 cm
9.199 152.238 m 89.199 152.238 l S Q
0 J
[] 0.0 d
q 1 0 0 -1 0 192.800003 cm
10.801 156.398 m 10.801 48.398 l S Q
7.25 135.847 m 10.785 145.464 l 14.32 135.847 l 12.234 137.382 9.379 
137.374 7.25 135.847 c h
7.25 135.847 m f*
0.862745 g
88.398 168.402 m 272.398 168.402 l 272.398 44.402 l 256.398 44.402 
204.152 44.73 185.602 43.085 c 185.602 16.402 l 175.285 16.402 l 
175.285 43.085 l 156.73 44.519 104.398 44.402 88.398 44.402 c 88.688 
62.316 88.398 108.402 88.398 168.402 c f
0 g
0.4 w
q 1 0 0 -1 0 192.800003 cm
92.398 24.398 m 268.398 24.398 l S Q
0.588235 g
92.398 184.402 m 84.398 184.402 l 85.922 120.402 84.398 60.402 84.398 
40.402 c 174.879 40.402 l 174.879 48.402 l 92.398 48.402 l 92.398 
76.402 93.922 152.402 92.398 184.402 c h
92.398 184.402 m f
0 g
1.6 w
1 J
1 j
q 1 0 0 -1 0 192.800003 cm
92.398 8.398 m 84.398 8.398 l 85.922 72.398 84.398 132.398 84.398 
152.398 c 174.879 152.398 l 174.879 144.398 l 92.398 144.398 l 92.398 
116.398 93.922 40.398 92.398 8.398 c h
92.398 8.398 m S Q
1 g
0.8 w
q 1 0 0 -1 0 192.800003 cm
0.398 0.398 m 296.398 0.398 l 296.398 192.398 l 0.398 192.398 l 0.398 
0.398 l h
0.398 0.398 m S Q
0 g
0.4 w
0 J
0 j
q 1 0 0 -1 0 192.800003 cm
228.398 28.398 m 244.398 28.398 l S Q
q 1 0 0 -1 0 192.800003 cm
232.398 32.398 m 240.398 32.398 l S Q
1 J
q 1 0 0 -1 0 192.800003 cm
175.48 152.398 m 175.48 176.398 l S Q
q 1 0 0 -1 0 192.800003 cm
185.398 152.398 m 185.398 176.398 l S Q
0.8 w
0 J
q 1 0 0 -1 0 192.800003 cm
288.398 24.398 m 288.398 144.398 l S Q
284.852 159.847 m 288.387 169.464 l 291.922 159.847 l 289.836 161.382 
286.977 161.374 284.852 159.847 c h
284.852 159.847 m f*
291.949 56.952 m 288.414 47.339 l 284.879 56.952 l 286.965 55.417 
289.82 55.425 291.949 56.952 c h
291.949 56.952 m f*
0.588235 g
268.398 184.402 m 276.398 184.402 l 274.879 120.402 276.398 60.402 
276.398 40.402 c 185.922 40.402 l 185.922 48.402 l 268.398 48.402 l 
268.398 76.402 266.879 152.402 268.398 184.402 c h
268.398 184.402 m f
0 g
1.6 w
1 J
1 j
q 1 0 0 -1 0 192.800003 cm
268.398 8.398 m 276.398 8.398 l 274.879 72.398 276.398 132.398 276.398 
152.398 c 185.922 152.398 l 185.922 144.398 l 268.398 144.398 l 268.398 
116.398 266.879 40.398 268.398 8.398 c h
268.398 8.398 m S Q
0.8 w
0 J
0 j
q 1 0 0 -1 0 192.800003 cm
136.398 24.398 m 171.32 70.309 176.398 108.398 180.398 152.398 c S Q
138 168.402 m 138 167.296 137.105 166.402 136 166.402 c 134.895 166.402 
134 167.296 134 168.402 c 134 169.503 134.895 170.402 136 170.402 c 
137.105 170.402 138 169.503 138 168.402 c h
138 168.402 m f
182.16 40.402 m 182.16 39.296 181.266 38.402 180.16 38.402 c 179.055 
38.402 178.16 39.296 178.16 40.402 c 178.16 41.503 179.055 42.402 
180.16 42.402 c 181.266 42.402 182.16 41.503 182.16 40.402 c h
182.16 40.402 m f
1.6 w
q 1 0 0 -1 0 192.800003 cm
180.719 158.801 m 180.719 182.801 l S Q
180.719 6.308 m 177.52 11.843 l 183.922 11.843 l 180.719 6.308 l h
180.719 6.308 m f*
0.8 w
q 0.000000000000000061 -1 -1 -0.000000000000000061 0 192.800003 cm
186.492 -180.719 m 180.957 -177.52 l 180.957 -183.922 l 186.492 
-180.719 l h
186.492 -180.719 m S Q
Q
showpage
%%Trailer
count op_count sub {pop} repeat
countdictstack dict_count sub {end} repeat
cairo_eps_state restore
%%EOF
